…
```r
miss_var_summary(amniota_tidy)
```

```
## # A tibble: 36 × 3
##    variable                       n_miss pct_miss
##    <chr>                           <int>    <dbl>
##  1 subspecies                      21322    100  
##  2 female_body_mass_at_maturity_g  21318    100. 
##  3 female_svl_at_maturity_cm       21120     99.1
##  4 fledging_mass_g                 21111     99.0
##  5 male_svl_cm                     21040     98.7
##  6 no_sex_maturity_d               20860     97.8
##  7 egg_width_mm                    20727     97.2
##  8 egg_length_mm                   20702     97.1
##  9 weaning_weight_g                20258     95.0
## 10 female_svl_cm                   20242     94.9
## # … with 26 more rows
```
…
```r
miss_var_summary(amniota_tidy_2)
```

```
## # A tibble: 36 × 3
##    variable                       n_miss pct_miss
##    <chr>                           <int>    <dbl>
##  1 subspecies                      21322    100  
##  2 female_body_mass_at_maturity_g  21318    100. 
##  3 female_svl_at_maturity_cm       21120     99.1
##  4 fledging_mass_g                 21111     99.0
##  5 male_svl_cm                     21040     98.7
##  6 no_sex_maturity_d               20860     97.8
##  7 egg_width_mm                    20727     97.2
##  8 egg_length_mm                   20702     97.1
##  9 weaning_weight_g                20258     95.0
## 10 female_svl_cm                   20242     94.9
## # … with 26 more rows
```
…
```
## [1] FALSE
```

`amphibio`  

```r
amphibio_tidy <- amphibio %>% clean_names()
miss_var_summary(amphibio_tidy)
```

```
## # A tibble: 38 × 3
##    variable n_miss pct_miss
##    <chr>     <int>    <dbl>
##  1 fruits     6774    100. 
##  2 flowers    6772     99.9
##  3 seeds      6772     99.9
##  4 leaves     6752     99.6
##  5 dry_cold   6735     99.4
##  6 vert       6657     98.2
##  7 obs        6651     98.2
##  8 wet_cold   6625     97.8
##  9 crepu      6608     97.5
## 10 dry_warm   6572     97.0
## # … with 28 more rows
```
…
**6. Use the package `naniar` to produce a summary, including percentages, of missing data in each column for the `amniota` data.**  

```r
miss_var_summary(amniota_tidy)
```

```
## # A tibble: 36 × 3
##    variable                       n_miss pct_miss
##    <chr>                           <int>    <dbl>
##  1 subspecies                      21322    100  
##  2 female_body_mass_at_maturity_g  21318    100. 
##  3 female_svl_at_maturity_cm       21120     99.1
##  4 fledging_mass_g                 21111     99.0
##  5 male_svl_cm                     21040     98.7
##  6 no_sex_maturity_d               20860     97.8
##  7 egg_width_mm                    20727     97.2
##  8 egg_length_mm                   20702     97.1
##  9 weaning_weight_g                20258     95.0
## 10 female_svl_cm                   20242     94.9
## # … with 26 more rows
```

**7. Use the package `naniar` to produce a summary, including percentages, of missing data in each column for the `amphibio` data.**

```r
miss_var_summary(amphibio_tidy)
```

```
## # A tibble: 38 × 3
##    variable n_miss pct_miss
##    <chr>     <int>    <dbl>
##  1 fruits     6774    100. 
##  2 flowers    6772     99.9
##  3 seeds      6772     99.9
##  4 leaves     6752     99.6
##  5 dry_cold   6735     99.4
##  6 vert       6657     98.2
##  7 obs        6651     98.2
##  8 wet_cold   6625     97.8
##  9 crepu      6608     97.5
## 10 dry_warm   6572     97.0
## # … with 28 more rows
```
…
