…
```
## [1] "albigula"    "spectabilis"
```

```r
tmp <- deserts %>%
  select(species, weight, hindfoot_length, sex) %>%
  filter(species %in% tmp$species) %>%
  drop_na(weight, hindfoot_length, sex) %>%
  mutate(ratio = weight / hindfoot_length)
tmp
```

```
## # A tibble: 3,068 × 5
##    species     weight hindfoot_length sex   ratio
##    <chr>        <dbl>           <dbl> <chr> <dbl>
##  1 spectabilis    117              50 F      2.34
##  2 spectabilis    121              51 F      2.37
##  3 spectabilis    115              51 M      2.25
##  4 spectabilis    120              48 F      2.5 
##  5 spectabilis    118              48 F      2.46
##  6 spectabilis    126              52 F      2.42
##  7 spectabilis    132              50 M      2.64
##  8 spectabilis    122              53 F      2.30
##  9 spectabilis    107              48 F      2.23
## 10 spectabilis    115              50 F      2.3 
## # … with 3,058 more rows
```
…
